tb/log/multiplexers_tb.log
# vsim -l multiplexers_tb.log work.multiplexers_tb -do "run -all;exit" -sv_seed random 
# Start time: 17:24:20 on Oct 13,2024
# Loading sv_std.std
# Loading work.multiplexers_tb
# Loading work.multiplexers
# Sv_Seed = 2698233926
# run -all
# @100 [MULTIPLEXERS]: r0: 0, r1: 1, r2: 2, r3: 3, r4: 4, r5: 5, r6: 6, r7: 7, din: d, aluout: f, rout: 0, din_en: 0, gout: 0, buswires: 0
# @200 [MULTIPLEXERS]: r0: 0, r1: 1, r2: 2, r3: 3, r4: 4, r5: 5, r6: 6, r7: 7, din: d, aluout: f, rout: 0, din_en: 0, gout: 1, buswires: f
# @300 [MULTIPLEXERS]: r0: 0, r1: 1, r2: 2, r3: 3, r4: 4, r5: 5, r6: 6, r7: 7, din: d, aluout: f, rout: 0, din_en: 1, gout: 0, buswires: d
# @400 [MULTIPLEXERS]: r0: 0, r1: 1, r2: 2, r3: 3, r4: 4, r5: 5, r6: 6, r7: 7, din: d, aluout: f, rout: 0, din_en: 1, gout: 1, buswires: d
# @500 [MULTIPLEXERS]: r0: 0, r1: 1, r2: 2, r3: 3, r4: 4, r5: 5, r6: 6, r7: 7, din: d, aluout: f, rout: 1, din_en: 0, gout: 0, buswires: 1
# @600 [MULTIPLEXERS]: r0: 0, r1: 1, r2: 2, r3: 3, r4: 4, r5: 5, r6: 6, r7: 7, din: d, aluout: f, rout: 1, din_en: 0, gout: 1, buswires: 1
# @700 [MULTIPLEXERS]: r0: 0, r1: 1, r2: 2, r3: 3, r4: 4, r5: 5, r6: 6, r7: 7, din: d, aluout: f, rout: 1, din_en: 1, gout: 0, buswires: 1
# @800 [MULTIPLEXERS]: r0: 0, r1: 1, r2: 2, r3: 3, r4: 4, r5: 5, r6: 6, r7: 7, din: d, aluout: f, rout: 1, din_en: 1, gout: 1, buswires: 1
# @900 [MULTIPLEXERS]: r0: 0, r1: 1, r2: 2, r3: 3, r4: 4, r5: 5, r6: 6, r7: 7, din: d, aluout: f, rout: 2, din_en: 0, gout: 0, buswires: 2
# @1000 [MULTIPLEXERS]: r0: 0, r1: 1, r2: 2, r3: 3, r4: 4, r5: 5, r6: 6, r7: 7, din: d, aluout: f, rout: 2, din_en: 0, gout: 1, buswires: 2
# @1100 [MULTIPLEXERS]: r0: 0, r1: 1, r2: 2, r3: 3, r4: 4, r5: 5, r6: 6, r7: 7, din: d, aluout: f, rout: 2, din_en: 1, gout: 0, buswires: 2
# @1200 [MULTIPLEXERS]: r0: 0, r1: 1, r2: 2, r3: 3, r4: 4, r5: 5, r6: 6, r7: 7, din: d, aluout: f, rout: 2, din_en: 1, gout: 1, buswires: 2
# @1300 [MULTIPLEXERS]: r0: 0, r1: 1, r2: 2, r3: 3, r4: 4, r5: 5, r6: 6, r7: 7, din: d, aluout: f, rout: 3, din_en: 0, gout: 0, buswires: 3
# @1400 [MULTIPLEXERS]: r0: 0, r1: 1, r2: 2, r3: 3, r4: 4, r5: 5, r6: 6, r7: 7, din: d, aluout: f, rout: 3, din_en: 0, gout: 1, buswires: 3
# @1500 [MULTIPLEXERS]: r0: 0, r1: 1, r2: 2, r3: 3, r4: 4, r5: 5, r6: 6, r7: 7, din: d, aluout: f, rout: 3, din_en: 1, gout: 0, buswires: 3
# @1600 [MULTIPLEXERS]: r0: 0, r1: 1, r2: 2, r3: 3, r4: 4, r5: 5, r6: 6, r7: 7, din: d, aluout: f, rout: 3, din_en: 1, gout: 1, buswires: 3
# @1700 [MULTIPLEXERS]: r0: 0, r1: 1, r2: 2, r3: 3, r4: 4, r5: 5, r6: 6, r7: 7, din: d, aluout: f, rout: 4, din_en: 0, gout: 0, buswires: 4
# @1800 [MULTIPLEXERS]: r0: 0, r1: 1, r2: 2, r3: 3, r4: 4, r5: 5, r6: 6, r7: 7, din: d, aluout: f, rout: 4, din_en: 0, gout: 1, buswires: 4
# @1900 [MULTIPLEXERS]: r0: 0, r1: 1, r2: 2, r3: 3, r4: 4, r5: 5, r6: 6, r7: 7, din: d, aluout: f, rout: 4, din_en: 1, gout: 0, buswires: 4
# @2000 [MULTIPLEXERS]: r0: 0, r1: 1, r2: 2, r3: 3, r4: 4, r5: 5, r6: 6, r7: 7, din: d, aluout: f, rout: 4, din_en: 1, gout: 1, buswires: 4
# @2100 [MULTIPLEXERS]: r0: 0, r1: 1, r2: 2, r3: 3, r4: 4, r5: 5, r6: 6, r7: 7, din: d, aluout: f, rout: 5, din_en: 0, gout: 0, buswires: 5
# @2200 [MULTIPLEXERS]: r0: 0, r1: 1, r2: 2, r3: 3, r4: 4, r5: 5, r6: 6, r7: 7, din: d, aluout: f, rout: 5, din_en: 0, gout: 1, buswires: 5
# @2300 [MULTIPLEXERS]: r0: 0, r1: 1, r2: 2, r3: 3, r4: 4, r5: 5, r6: 6, r7: 7, din: d, aluout: f, rout: 5, din_en: 1, gout: 0, buswires: 5
# @2400 [MULTIPLEXERS]: r0: 0, r1: 1, r2: 2, r3: 3, r4: 4, r5: 5, r6: 6, r7: 7, din: d, aluout: f, rout: 5, din_en: 1, gout: 1, buswires: 5
# @2500 [MULTIPLEXERS]: r0: 0, r1: 1, r2: 2, r3: 3, r4: 4, r5: 5, r6: 6, r7: 7, din: d, aluout: f, rout: 6, din_en: 0, gout: 0, buswires: 6
# @2600 [MULTIPLEXERS]: r0: 0, r1: 1, r2: 2, r3: 3, r4: 4, r5: 5, r6: 6, r7: 7, din: d, aluout: f, rout: 6, din_en: 0, gout: 1, buswires: 6
# @2700 [MULTIPLEXERS]: r0: 0, r1: 1, r2: 2, r3: 3, r4: 4, r5: 5, r6: 6, r7: 7, din: d, aluout: f, rout: 6, din_en: 1, gout: 0, buswires: 6
# @2800 [MULTIPLEXERS]: r0: 0, r1: 1, r2: 2, r3: 3, r4: 4, r5: 5, r6: 6, r7: 7, din: d, aluout: f, rout: 6, din_en: 1, gout: 1, buswires: 6
# @2900 [MULTIPLEXERS]: r0: 0, r1: 1, r2: 2, r3: 3, r4: 4, r5: 5, r6: 6, r7: 7, din: d, aluout: f, rout: 7, din_en: 0, gout: 0, buswires: 7
# ** Note: $finish    : ./sv/multiplexers_tb.sv(52)
#    Time: 29 ns  Iteration: 0  Instance: /multiplexers_tb
# End time: 17:24:20 on Oct 13,2024, Elapsed time: 0:00:00
# Errors: 0, Warnings: 0
